<?xml version="1.0" encoding="utf-8"?>
<!-- Generator: Adobe Illustrator 17.1.0, SVG Export Plug-In . SVG Version: 6.00 Build 0)  -->
<!DOCTYPE svg PUBLIC "-//W3C//DTD SVG 1.1//EN" "http://www.w3.org/Graphics/SVG/1.1/DTD/svg11.dtd">
<svg version="1.1" xmlns="http://www.w3.org/2000/svg" xmlns:xlink="http://www.w3.org/1999/xlink" x="0px" y="0px"
	 viewBox="0 0 210 210" enable-background="new 0 0 210 210" xml:space="preserve">
<g id="Layer_1" display="none">
	<g display="inline">
		
			<line fill="none" stroke="#A1936E" stroke-width="4" stroke-linecap="round" stroke-miterlimit="10" x1="105.1" y1="143.2" x2="105.1" y2="70.3"/>
		
			<line fill="none" stroke="#A1936E" stroke-width="4" stroke-linecap="round" stroke-miterlimit="10" x1="130.9" y1="132.5" x2="79.3" y2="81"/>
		
			<line fill="none" stroke="#A1936E" stroke-width="4" stroke-linecap="round" stroke-miterlimit="10" x1="141.5" y1="106.7" x2="68.7" y2="106.7"/>
		
			<line fill="none" stroke="#A1936E" stroke-width="4" stroke-linecap="round" stroke-miterlimit="10" x1="130.9" y1="81" x2="79.3" y2="132.5"/>
	</g>
</g>
<g id="Layer_2">
	
		<line fill="none" stroke="#A1936E" stroke-width="4" stroke-linecap="round" stroke-miterlimit="10" x1="91" y1="142" x2="91" y2="70"/>
	
		<line fill="none" stroke="#A1936E" stroke-width="4" stroke-linecap="round" stroke-miterlimit="10" x1="121" y1="142" x2="121" y2="70"/>
	
		<line fill="none" stroke="#A1936E" stroke-width="4" stroke-linecap="round" stroke-miterlimit="10" x1="109" y1="97" x2="109" y2="70"/>
	
		<line fill="none" stroke="#A1936E" stroke-width="4" stroke-linecap="round" stroke-miterlimit="10" x1="133" y1="97" x2="133" y2="70"/>
	<path fill="none" stroke="#A1936E" stroke-width="4" stroke-linecap="round" stroke-miterlimit="10" d="M76,115
		c0-25.4,6.7-46,15-46"/>
	
		<line fill="none" stroke="#A1936E" stroke-width="4" stroke-linecap="round" stroke-miterlimit="10" x1="76" y1="115" x2="91" y2="115"/>
	
		<line fill="none" stroke="#A1936E" stroke-width="4" stroke-linecap="round" stroke-miterlimit="10" x1="109" y1="97" x2="133" y2="97"/>
</g>
</svg>
