<?xml version="1.0" encoding="utf-8"?>
<!-- Generator: Adobe Illustrator 17.1.0, SVG Export Plug-In . SVG Version: 6.00 Build 0)  -->
<!DOCTYPE svg PUBLIC "-//W3C//DTD SVG 1.1//EN" "http://www.w3.org/Graphics/SVG/1.1/DTD/svg11.dtd">
<svg version="1.1" id="Layer_1" xmlns="http://www.w3.org/2000/svg" xmlns:xlink="http://www.w3.org/1999/xlink" x="0px" y="0px"
	 viewBox="55 58 40 29" enable-background="new 55 58 40 29" xml:space="preserve">
<rect x="55" y="58" fill="#A1936E" width="40" height="5"/>
<rect x="55" y="70" fill="#A1936E" width="40" height="5"/>
<rect x="55" y="82" fill="#A1936E" width="40" height="5"/>
</svg>
